{"without_meta": [
    {"arguments":{"categories":[],"contains":[],"delta":null,"end":null,"grouped":false,"meta":[],"not_categories":[],"not_packages":[],"not_topics":[],"not_users":[],"order":"asc","packages":[],"page":1,"rows_per_page":5,"start":null,"topics":[],"users":["sross"]},"count":5,"pages":2,"raw_messages":[{"certificate":"some_certificate","i":1,"msg":{"agent":"sross","user":"sross"},"msg_id":null,"signature":"some_signature","source_name":"datanommer","source_version":"0","timestamp":1371158651.0,"topic":"org.fedoraproject.prod.fas.user.create"},{"certificate":"some_certificate","i":1,"msg":{"agent":"sross","fields":["password"],"user":"sross"},"msg_id":null,"signature":"some_signature","source_name":"datanommer","source_version":"0","timestamp":1371158687.0,"topic":"org.fedoraproject.prod.fas.user.update"},{"certificate":"some_certificate","i":1,"msg":{"agent":"sross","group":"cla_fpca","user":"sross"},"msg_id":null,"signature":"some_signature","source_name":"datanommer","source_version":"0","timestamp":1371158732.0,"topic":"org.fedoraproject.prod.fas.group.member.apply"},{"certificate":"some_certificate","i":2,"msg":{"agent":"sross","group":"cla_fpca","user":"sross"},"msg_id":null,"signature":"some_signature","source_name":"datanommer","source_version":"0","timestamp":1371158732.0,"topic":"org.fedoraproject.prod.fas.group.member.sponsor"},{"certificate":"some_certificate","i":1,"msg":{"agent":"sross","fields":["status","password"],"user":"sross"},"msg_id":"2015-f366f6d4-beb4-4d45-ac80-ead060a6fb32","signature":"some_signature","source_name":"datanommer","source_version":"0.6.4","timestamp":1421438507.0,"topic":"org.fedoraproject.prod.fas.user.update"}],"total":282},

    {"arguments":{"categories":[],"contains":[],"delta":null,"end":null,"grouped":false,"meta":[],"not_categories":[],"not_packages":[],"not_topics":[],"not_users":[],"order":"asc","packages":[],"page":2,"rows_per_page":5,"start":null,"topics":[],"users":["sross"]},"count":5,"pages":2,"raw_messages":[{"certificate":"some_certificate","i":41,"msg":{"badge":{"badge_id":"paranoid-panda","description":"You updated your password with the Fedora Account System (FAS)","image_url":"https://badges.fedoraproject.org/pngs/fas-paranoid-panda.png","name":"Paranoid Panda"},"user":{"badges_user_id":13031,"username":"sross"}},"msg_id":"2015-4782a4c9-d77a-48fc-be14-ee5f37af7761","signature":"some_signature","source_name":"datanommer","source_version":"0.6.4","timestamp":1421438521.0,"topic":"org.fedoraproject.prod.fedbadges.badge.award"},{"certificate":"some_certificate","i":42,"msg":{"old_rank":null,"person":{"bio":null,"email":"sross@fedoraproject.org","id":13031,"nickname":"sross","rank":8831,"website":null}},"msg_id":"2015-9748c957-a749-41ab-863c-bc8a0b65c541","signature":"some_signature","source_name":"datanommer","source_version":"0.6.4","timestamp":1421438525.0,"topic":"org.fedoraproject.prod.fedbadges.person.rank.advance"},{"certificate":"some_certificate","i":43,"msg":{"badge":{"badge_id":"dont-call-it-a-comeback","description":"You reactivated your Fedora account","image_url":"https://badges.fedoraproject.org/pngs/dont-call-it-a-comeback.png","name":"Don't Call it a Comeback"},"user":{"badges_user_id":13031,"username":"sross"}},"msg_id":"2015-61acd1a1-b0e8-4924-950a-e470003a5f11","signature":"some_signature","source_name":"datanommer","source_version":"0.6.4","timestamp":1421438535.0,"topic":"org.fedoraproject.prod.fedbadges.badge.award"},{"certificate":"some_certificate","i":44,"msg":{"old_rank":8831,"person":{"bio":null,"email":"sross@fedoraproject.org","id":13031,"nickname":"sross","rank":6503,"website":null}},"msg_id":"2015-32c6e189-f83b-48fb-86b7-1541e82b7bba","signature":"some_signature","source_name":"datanommer","source_version":"0.6.4","timestamp":1421438541.0,"topic":"org.fedoraproject.prod.fedbadges.person.rank.advance"},{"certificate":"some_certificate","i":1,"msg":{"badge":{"badge_id":"involvement","description":"You signed the Fedora Project Contributor Agreement (FPCA)","image_url":"https://badges.fedoraproject.org/pngs/involvement.png","name":"Involvement"},"user":{"badges_user_id":13031,"username":"sross"}},"msg_id":"2015-17e8d07d-71c7-4a09-82ce-c34d7850e30c","signature":"some_signature","source_name":"datanommer","source_version":"0.6.4","timestamp":1421440925.0,"topic":"org.fedoraproject.prod.fedbadges.badge.award"}],"total":282}],
"with_meta": [
    {"arguments":{"categories":[],"contains":[],"delta":null,"end":null,"grouped":false,"meta":["title","objects"],"not_categories":[],"not_packages":[],"not_topics":[],"not_users":[],"order":"asc","packages":[],"page":1,"rows_per_page":5,"start":null,"topics":[],"users":["sross"]},"count":5,"pages":2,"raw_messages":[{"certificate":"some_certificate","i":1,"meta":{"objects":["users/sross"],"title":"fas.user.create"},"msg":{"agent":"sross","user":"sross"},"msg_id":null,"signature":"some_signature","source_name":"datanommer","source_version":"0","timestamp":1371158651.0,"topic":"org.fedoraproject.prod.fas.user.create"},{"certificate":"some_certificate","i":1,"meta":{"objects":["users/sross"],"title":"fas.user.update"},"msg":{"agent":"sross","fields":["password"],"user":"sross"},"msg_id":null,"signature":"some_signature","source_name":"datanommer","source_version":"0","timestamp":1371158687.0,"topic":"org.fedoraproject.prod.fas.user.update"},{"certificate":"some_certificate","i":1,"meta":{"objects":["users/sross","groups/cla_fpca"],"title":"fas.group.member.apply"},"msg":{"agent":"sross","group":"cla_fpca","user":"sross"},"msg_id":null,"signature":"some_signature","source_name":"datanommer","source_version":"0","timestamp":1371158732.0,"topic":"org.fedoraproject.prod.fas.group.member.apply"},{"certificate":"some_certificate","i":2,"meta":{"objects":["users/sross","groups/cla_fpca"],"title":"fas.group.member.sponsor"},"msg":{"agent":"sross","group":"cla_fpca","user":"sross"},"msg_id":null,"signature":"some_signature","source_name":"datanommer","source_version":"0","timestamp":1371158732.0,"topic":"org.fedoraproject.prod.fas.group.member.sponsor"},{"certificate":"some_certificate","i":1,"meta":{"objects":["users/sross"],"title":"fas.user.update"},"msg":{"agent":"sross","fields":["status","password"],"user":"sross"},"msg_id":"2015-f366f6d4-beb4-4d45-ac80-ead060a6fb32","signature":"some_signature","source_name":"datanommer","source_version":"0.6.4","timestamp":1421438507.0,"topic":"org.fedoraproject.prod.fas.user.update"}],"total":282},
    {"arguments":{"categories":[],"contains":[],"delta":null,"end":null,"grouped":false,"meta":["title","objects"],"not_categories":[],"not_packages":[],"not_topics":[],"not_users":[],"order":"asc","packages":[],"page":2,"rows_per_page":5,"start":null,"topics":[],"users":["sross"]},"count":5,"pages":2,"raw_messages":[{"certificate":"some_certificate","i":41,"meta":{"objects":["paranoid-panda"],"title":"fedbadges.badge.award"},"msg":{"badge":{"badge_id":"paranoid-panda","description":"You updated your password with the Fedora Account System (FAS)","image_url":"https://badges.fedoraproject.org/pngs/fas-paranoid-panda.png","name":"Paranoid Panda"},"user":{"badges_user_id":13031,"username":"sross"}},"msg_id":"2015-4782a4c9-d77a-48fc-be14-ee5f37af7761","signature":"some_signature","source_name":"datanommer","source_version":"0.6.4","timestamp":1421438521.0,"topic":"org.fedoraproject.prod.fedbadges.badge.award"},{"certificate":"some_certificate","i":42,"meta":{"objects":[],"title":"fedbadges.person.rank.advance"},"msg":{"old_rank":null,"person":{"bio":null,"email":"sross@fedoraproject.org","id":13031,"nickname":"sross","rank":8831,"website":null}},"msg_id":"2015-9748c957-a749-41ab-863c-bc8a0b65c541","signature":"some_signature","source_name":"datanommer","source_version":"0.6.4","timestamp":1421438525.0,"topic":"org.fedoraproject.prod.fedbadges.person.rank.advance"},{"certificate":"some_certificate","i":43,"meta":{"objects":["don't-call-it-a-comeback"],"title":"fedbadges.badge.award"},"msg":{"badge":{"badge_id":"dont-call-it-a-comeback","description":"You reactivated your Fedora account","image_url":"https://badges.fedoraproject.org/pngs/dont-call-it-a-comeback.png","name":"Don't Call it a Comeback"},"user":{"badges_user_id":13031,"username":"sross"}},"msg_id":"2015-61acd1a1-b0e8-4924-950a-e470003a5f11","signature":"some_signature","source_name":"datanommer","source_version":"0.6.4","timestamp":1421438535.0,"topic":"org.fedoraproject.prod.fedbadges.badge.award"},{"certificate":"some_certificate","i":44,"meta":{"objects":[],"title":"fedbadges.person.rank.advance"},"msg":{"old_rank":8831,"person":{"bio":null,"email":"sross@fedoraproject.org","id":13031,"nickname":"sross","rank":6503,"website":null}},"msg_id":"2015-32c6e189-f83b-48fb-86b7-1541e82b7bba","signature":"some_signature","source_name":"datanommer","source_version":"0.6.4","timestamp":1421438541.0,"topic":"org.fedoraproject.prod.fedbadges.person.rank.advance"},{"certificate":"some_certificate","i":1,"meta":{"objects":["involvement"],"title":"fedbadges.badge.award"},"msg":{"badge":{"badge_id":"involvement","description":"You signed the Fedora Project Contributor Agreement (FPCA)","image_url":"https://badges.fedoraproject.org/pngs/involvement.png","name":"Involvement"},"user":{"badges_user_id":13031,"username":"sross"}},"msg_id":"2015-17e8d07d-71c7-4a09-82ce-c34d7850e30c","signature":"some_signature","source_name":"datanommer","source_version":"0.6.4","timestamp":1421440925.0,"topic":"org.fedoraproject.prod.fedbadges.badge.award"}],"total":282}
]}
